C:\Users\Johanna\Desktop\Kocsi\src\main\java\model\CarDAO.java
C:\Users\Johanna\Desktop\Kocsi\src\main\java\com\mycompany\kocsi\JAXRSConfiguration.java
C:\Users\Johanna\Desktop\Kocsi\src\main\java\model\CarDTO.java
C:\Users\Johanna\Desktop\Kocsi\src\main\java\com\mycompany\kocsi\resources\JavaEE8Resource.java
C:\Users\Johanna\Desktop\Kocsi\src\main\java\service\CarService.java
C:\Users\Johanna\Desktop\Kocsi\src\main\java\servlet\CarServlet.java
C:\Users\Johanna\Desktop\Kocsi\src\main\java\mapper\CarMapper.java
C:\Users\Johanna\Desktop\Kocsi\src\main\java\entity\Car.java
