1: Mon May 18 14:41:17 CEST 2020: Button pressed
2: Mon May 18 14:41:18 CEST 2020: Button pressed
3: Mon May 18 14:41:20 CEST 2020: Button pressed
4: Mon May 18 14:41:21 CEST 2020: Button pressed
5: Mon May 18 14:41:22 CEST 2020: Button pressed
6: Mon May 18 14:41:23 CEST 2020: Button pressed
7: Mon May 18 14:41:23 CEST 2020: Button pressed
8: Mon May 18 14:41:24 CEST 2020: Button pressed
9: Mon May 18 14:41:25 CEST 2020: Button pressed

