mapper\StudentMapperImpl.class
servlet\AddNewStudentServlet.class
model\StudentDTO.class
mapper\StudentMapper.class
service\StudentService.class
entities\StudentEntity.class
entities\StudentEntity_.class
com\mycompany\students_grades\resources\JavaEE8Resource.class
com\mycompany\students_grades\JAXRSConfiguration.class
model\StudentDAO.class
